<?xml version="1.0" encoding="iso-8859-1"?>
<!-- Generator: Adobe Illustrator 19.0.0, SVG Export Plug-In . SVG Version: 6.00 Build 0)  -->
<svg version="1.1" id="Capa_1" xmlns="http://www.w3.org/2000/svg" xmlns:xlink="http://www.w3.org/1999/xlink" x="0px" y="0px"
	 viewBox="0 0 512 512" style="enable-background:new 0 0 512 512;" xml:space="preserve">
<circle style="fill:#1E499E;" cx="256" cy="256" r="256"/>
<path style="fill:#0E387C;" d="M511.982,257.446L370.139,115.603L237.387,77l-119.53,104.204L256,451.273l54.823,54.823
	C425.406,481.093,511.306,379.368,511.982,257.446z"/>
<circle style="fill:#F8A725;" cx="256" cy="148.44" r="23.452"/>
<path style="fill:#F47F17;" d="M256,124.993c-0.016,0-0.032,0.001-0.048,0.001v46.902c0.016,0,0.032,0.001,0.048,0.001
	c12.952,0,23.452-10.5,23.452-23.452C279.452,135.493,268.952,124.993,256,124.993z"/>
<rect x="237.39" y="181.2" style="fill:#F8A725;" width="37.23" height="98.02"/>
<rect x="255.95" y="181.2" style="fill:#F47F17;" width="18.66" height="98.02"/>
<path style="fill:#44C4FC;" d="M256,63.227c-83.152,0-150.56,67.408-150.56,150.56C105.44,312,256,451.273,256,451.273
	S406.56,326,406.56,213.786C406.56,130.635,339.152,63.227,256,63.227z M256,313.781c-59.618,0-107.949-48.33-107.949-107.949
	S196.382,97.884,256,97.884s107.949,48.33,107.949,107.949S315.618,313.781,256,313.781z"/>
<path style="fill:#29ACE5;" d="M256,97.884c59.618,0,107.949,48.33,107.949,107.948S315.618,313.781,256,313.781v137.492
	c0,0,150.56-125.273,150.56-237.487c0-83.152-67.408-150.56-150.56-150.56V97.884z"/>
<g>
</g>
<g>
</g>
<g>
</g>
<g>
</g>
<g>
</g>
<g>
</g>
<g>
</g>
<g>
</g>
<g>
</g>
<g>
</g>
<g>
</g>
<g>
</g>
<g>
</g>
<g>
</g>
<g>
</g>
</svg>
