<?xml version="1.0" encoding="iso-8859-1"?>
<!-- Generator: Adobe Illustrator 19.0.0, SVG Export Plug-In . SVG Version: 6.00 Build 0)  -->
<svg version="1.1" id="Capa_1" xmlns="http://www.w3.org/2000/svg" xmlns:xlink="http://www.w3.org/1999/xlink" x="0px" y="0px"
	 viewBox="0 0 512 512" style="enable-background:new 0 0 512 512;" xml:space="preserve">
<circle style="fill:#29D371;" cx="256" cy="256" r="256"/>
<path style="fill:#0CBF55;" d="M106.937,288.17l215.189,215.189c84.346-22.491,151.547-86.963,177.86-169.678L292.358,126.053
	L106.937,288.17z"/>
<rect x="216.739" y="294.574" transform="matrix(-0.7071 -0.7071 0.7071 -0.7071 311.4788 778.1667)" style="fill:#FABF2D;" width="200.328" height="59.999"/>
<rect x="291.296" y="235.025" transform="matrix(-0.7071 0.7071 -0.7071 -0.7071 759.8837 355.6236)" style="fill:#F8A725;" width="29.988" height="200.328"/>
<circle style="fill:#44C4FC;" cx="201.1" cy="208.78" r="108.67"/>
<path style="fill:#29ACE5;" d="M124.256,131.947c-42.428,42.438-42.426,111.235,0.009,153.669s111.231,42.437,153.669,0.008
	L124.256,131.947z"/>
<path style="fill:#F9F9F9;" d="M201.104,331.886c-31.541,0-63.081-12.006-87.092-36.017c-48.023-48.023-48.023-126.162,0-174.184
	c48.022-48.022,126.162-48.023,174.184,0c23.264,23.263,36.075,54.193,36.075,87.092c-0.001,32.899-12.813,63.829-36.075,87.092
	C264.185,319.88,232.644,331.886,201.104,331.886z M201.104,114.654c-24.114,0-48.228,9.179-66.586,27.536
	c-17.786,17.786-27.581,41.433-27.581,66.586s9.795,48.8,27.581,66.586s41.433,27.581,66.586,27.581s48.8-9.795,66.586-27.581
	c17.785-17.786,27.581-41.433,27.581-66.586s-9.795-48.8-27.581-66.585C249.332,123.833,225.217,114.654,201.104,114.654z"/>
<path style="fill:#F4F4F4;" d="M267.681,275.371c-17.785,17.78-41.428,27.572-66.577,27.572c-25.153,0-48.8-9.795-66.586-27.581
	c-17.786-17.786-27.581-41.433-27.581-66.586c0-25.148,9.792-48.792,27.572-66.577l-20.506-20.506
	c-48.014,48.023-48.011,126.155,0.009,174.175c24.011,24.011,55.551,36.017,87.092,36.017c31.537,0,63.073-12.003,87.083-36.009
	L267.681,275.371z"/>
<circle style="fill:#303F9E;" cx="201.1" cy="162.95" r="20.03"/>
<path style="fill:#283592;" d="M201.104,142.918c-0.373,0-0.736,0.036-1.104,0.056v39.945c0.368,0.02,0.731,0.056,1.104,0.056
	c11.061,0,20.028-8.967,20.028-20.028C221.132,151.885,212.165,142.918,201.104,142.918z"/>
<rect x="185.21" y="190.92" style="fill:#303F9E;" width="31.791" height="83.71"/>
<rect x="200" y="190.92" style="fill:#283592;" width="16.999" height="83.71"/>
<g>
</g>
<g>
</g>
<g>
</g>
<g>
</g>
<g>
</g>
<g>
</g>
<g>
</g>
<g>
</g>
<g>
</g>
<g>
</g>
<g>
</g>
<g>
</g>
<g>
</g>
<g>
</g>
<g>
</g>
</svg>
