<?xml version="1.0" encoding="iso-8859-1"?>
<!-- Generator: Adobe Illustrator 19.0.0, SVG Export Plug-In . SVG Version: 6.00 Build 0)  -->
<svg version="1.1" id="Layer_1" xmlns="http://www.w3.org/2000/svg" xmlns:xlink="http://www.w3.org/1999/xlink" x="0px" y="0px"
	 viewBox="0 0 512 512" style="enable-background:new 0 0 512 512;" xml:space="preserve">
<path style="fill:#C4D9FD;" d="M510.859,196.558c-2.737-8.426-10.021-14.568-18.791-15.842l-148.695-21.604l-66.5-134.753
	c-3.92-7.945-12.012-12.976-20.873-12.976c-8.861,0-16.953,5.031-20.873,12.976L168.631,159.11l-148.7,21.604
	c-8.769,1.274-16.055,7.416-18.791,15.842c-2.739,8.428-0.455,17.678,5.891,23.862l107.601,104.873L89.22,473.405
	c-1.497,8.732,2.092,17.558,9.26,22.766c4.055,2.947,8.858,4.446,13.685,4.446c3.704,0,7.422-0.883,10.828-2.674L256,428.021
	l133.005,69.922c3.426,1.802,7.158,2.672,10.895,2.674c12.841-0.019,23.244-10.433,23.244-23.277c0-1.788-0.203-3.529-0.585-5.203
	l-25.19-146.844L504.97,220.418C511.314,214.236,513.598,204.986,510.859,196.558z"/>
<path style="fill:#A7C7FC;" d="M235.127,24.361l-66.496,134.751l-148.7,21.604c-8.769,1.274-16.055,7.416-18.791,15.842
	c-2.739,8.428-0.455,17.678,5.891,23.862l107.601,104.873L89.22,473.405c-1.497,8.732,2.092,17.558,9.26,22.766
	c4.055,2.947,8.858,4.446,13.685,4.446c3.704,0,7.422-0.883,10.828-2.674L256,428.021V11.385
	C247.139,11.385,239.047,16.414,235.127,24.361z"/>
<g>
</g>
<g>
</g>
<g>
</g>
<g>
</g>
<g>
</g>
<g>
</g>
<g>
</g>
<g>
</g>
<g>
</g>
<g>
</g>
<g>
</g>
<g>
</g>
<g>
</g>
<g>
</g>
<g>
</g>
</svg>
